<svg xmlns="http://www.w3.org/2000/svg" xmlns:xlink="http://www.w3.org/1999/xlink" version="1.1" style="" xml:space="preserve" width="700" height="200"><rect id="backgroundrect" width="100%" height="100%" x="0" y="0" fill="none" stroke="none"/><defs><linearGradient id="svg_20" x2="0.98828125" y2="0.11328125" x1="0.10546875" y1="0.6015625" spreadMethod="pad"><stop stop-color="#050587" stop-opacity="1" offset="0"/><stop stop-color="#fafa78" stop-opacity="1" offset="1"/></linearGradient><filter xmlns:inkscape="http://www.inkscape.org/namespaces/inkscape" id="f066" inkscape:label="Metallized paint" inkscape:menu="Materials" inkscape:menu-tooltip="Metallized effect with a soft lighting, slightly translucent at the edges" height="1.100000023841858" width="1.100000023841858" y="-0.05000000074505806" x="-0.05000000074505806" color-interpolation-filters="sRGB">
            <feGaussianBlur stdDeviation="1" result="result1"/>
            <feComposite in="result1" in2="result1" result="result4" operator="in"/>
            <feBlend in="result1" mode="screen" result="result5" in2="result4"/>
            <feGaussianBlur stdDeviation="8" result="result6" in="result5"/>
            <feComposite operator="atop" in="result6" in2="result5" result="result8"/>
            <feComposite operator="in" result="fbSourceGraphic" in="result6" in2="result8"/>
            <feGaussianBlur result="result0" in="fbSourceGraphic" stdDeviation="2.5"/>
            <feSpecularLighting specularExponent="45" specularConstant="1.5" surfaceScale="1" lighting-color="#fff" result="result1" in="result0">
                <fePointLight z="21000" y="-9000" x="-6000"/>
            </feSpecularLighting>
            <feComposite operator="in" result="result2" in="result1" in2="fbSourceGraphic"/>
            <feComposite k3="1" k2="1" operator="arithmetic" result="result4" in="fbSourceGraphic" in2="result2"/>
            <feComposite operator="in" in="result9" in2="result4" result="result91"/>
            <feBlend mode="multiply" in2="result91"/>
        </filter><linearGradient id="svg_21"><stop stop-color="#42a9e5" stop-opacity="1" offset="0"/><stop stop-color="#bd561a" stop-opacity="1" offset="1"/></linearGradient><linearGradient id="svg_22" x1="0.0" y1="0.0" x2="0.9921875" y2="0.4140625"><stop stop-color="#42a9e5" stop-opacity="1" offset="0.34765625"/><stop stop-color="#bd561a" stop-opacity="1" offset="1"/></linearGradient><linearGradient id="svg_23" x1="0.0" y1="0.0" x2="0.9921875" y2="0.4140625"><stop stop-color="#42a9e5" stop-opacity="1" offset="0.71484375"/><stop stop-color="#bd561a" stop-opacity="1" offset="1"/></linearGradient><linearGradient id="svg_24" x1="0.0" y1="0.0" x2="0.484375" y2="0.90234375"><stop stop-color="#42a9e5" stop-opacity="1" offset="0.71484375"/><stop stop-color="#bd561a" stop-opacity="1" offset="1"/></linearGradient><linearGradient id="svg_25" x1="0.0" y1="0.0" x2="1" y2="0.03125"><stop stop-color="#42a9e5" stop-opacity="1" offset="0.71484375"/><stop stop-color="#bd561a" stop-opacity="1" offset="1"/></linearGradient><linearGradient id="svg_26" x1="0.0" y1="0.0" x2="1" y2="0.03125"><stop stop-color="#42a9e5" stop-opacity="1" offset="0"/><stop stop-color="#bd561a" stop-opacity="1" offset="1"/></linearGradient><linearGradient id="svg_27" x1="0.31640625" y1="0.00390625" x2="1" y2="0.81640625"><stop stop-color="#42a9e5" stop-opacity="1" offset="0"/><stop stop-color="#bd561a" stop-opacity="1" offset="1"/></linearGradient><linearGradient id="svg_28" x1="0.31640625" y1="0.00390625" x2="1" y2="0.81640625"><stop stop-color="#bd561a" stop-opacity="1" offset="0"/><stop stop-color="#42a9e5" stop-opacity="1" offset="0.31640625"/><stop stop-color="#42a9e5" stop-opacity="1" offset="0.671875"/><stop stop-color="#bd561a" stop-opacity="1" offset="1"/></linearGradient><linearGradient id="svg_29" x1="0" y1="0.48828125" x2="1" y2="0.52734375"><stop stop-color="#bd561a" stop-opacity="1" offset="0"/><stop stop-color="#42a9e5" stop-opacity="1" offset="0.31640625"/><stop stop-color="#42a9e5" stop-opacity="1" offset="0.671875"/><stop stop-color="#bd561a" stop-opacity="1" offset="1"/></linearGradient></defs>
















<g class="currentLayer" style=""><title>Layer 1</title><g id="svg_1" class="" fill="url(#svg_29)" fill-opacity="1" stroke-opacity="1" stroke="#000000" filter="">
	<g id="svg_2" fill="url(#svg_29)" fill-opacity="1" stroke="#000000" stroke-opacity="1" filter="">
		<path d="M199.61016836707756,74.22221356111413 L150.38247437595302,19.474489815454756 c-2.7467987657247317,-3.0538879442948605 -7.1995301582271995,-3.0529714112983735 -9.94550480191001,0.0018330659929741205 c-1.3181832060536178,1.466452794379285 -2.0586568607201867,3.4544128637597034 -2.0590689217411473,5.52806876831166 v23.46324471006856 H89.15020666117728 c-3.884087183576556,0 -7.0326454447380735,3.501614313078787 -7.0326454447380735,7.8212343255222665 c0,4.3196200124434805 3.1485582611615177,7.8212343255222665 7.0326454447380735,7.8212343255222665 H145.4105460970399 c3.884087183576556,0 7.0326454447380735,-3.501614313078787 7.0326454447380735,-7.8212343255222665 V43.88405484439619 l32.25119198856035,35.86760228452433 l-32.25119198856035,35.86760228452433 v-12.404357574455776 c0,-4.3196200124434805 -3.1485582611615177,-7.8212343255222665 -7.0326454447380735,-7.8212343255222665 H68.05268238798399 v-23.46324471006856 c-0.0008241220419216127,-4.3196200124434805 -3.150206505245361,-7.82031779252578 -7.033881627800955,-7.819401259529292 c-1.8641640588266857,0.00045826649824352996 -3.6520968287756235,0.823963163841859 -4.970692095850201,2.2899576917229023 L6.8208267342292155,121.14870298125123 c-2.74556258266185,3.0543462107931036 -2.74556258266185,8.00499919131792 0,11.058887135612782 l49.22769399112459,54.74772374565938 c1.3185952670745795,1.4669110608775284 3.106940098044476,2.291332491217633 4.971928278913084,2.291790757715876 c0.9242528700150888,0.0032078654877047154 1.8402645196109593,-0.19888766023769094 2.693230832999827,-0.5943716482218546 c2.6273010696460974,-1.2116566213558841 4.339826672759208,-4.0634490399253504 4.339002550717285,-7.226862677300413 v-23.46324471006856 h49.22769399112459 c3.884087183576556,0 7.0326454447380735,-3.501614313078787 7.0326454447380735,-7.8212343255222665 s-3.1485582611615177,-7.8212343255222665 -7.0326454447380735,-7.8212343255222665 H61.020449004266894 c-3.884087183576556,0 -7.0326454447380735,3.501614313078787 -7.0326454447380735,7.8212343255222665 v12.404357574455776 l-32.25119198856035,-35.86760228452433 l32.25119198856035,-35.86760228452433 v12.404357574455776 c0,4.3196200124434805 3.1485582611615177,7.8212343255222665 7.0326454447380735,7.8212343255222665 h77.35745164803497 v23.46324471006856 c0.0008241220419216127,4.3196200124434805 3.150206505245361,7.82031779252578 7.033881627800955,7.819401259529292 c1.8641640588266857,-0.00045826649824352996 3.6520968287756235,-0.823963163841859 4.970692095850201,-2.2899576917229023 l49.22769399112459,-54.74772374565938 C202.35531888871847,82.2267544859338 202.35531888871847,77.27610150540899 199.61016836707756,74.22221356111413 z" id="svg_3" fill="url(#svg_29)" fill-opacity="1" stroke="#000000" stroke-opacity="1" filter=""/>
	</g>
</g><g id="svg_4">
</g><g id="svg_5">
</g><g id="svg_6">
</g><g id="svg_7">
</g><g id="svg_8">
</g><g id="svg_9">
</g><g id="svg_10">
</g><g id="svg_11">
</g><g id="svg_12">
</g><g id="svg_13">
</g><g id="svg_14">
</g><g id="svg_15">
</g><g id="svg_16">
</g><g id="svg_17">
</g><g id="svg_18">
</g><foreignObject fill="url(#svg_29)" stroke="#000000" stroke-dashoffset="" fill-rule="nonzero" font-size="144" font-family="'Arial Black', Gadget, sans-serif" letter-spacing="0" word-spacing="0" marker-start="" marker-mid="" marker-end="" id="svg_31" x="210.83853387111776" y="22.51700782775879" width="463.10482141199776" height="155" style="color: rgb(72, 72, 72);" class=""><p style="border: none;outline: none;font-size: inherit;line-height: 1em;padding:0;margin:0;" xmlns="http://www.w3.org/1999/xhtml"><p xmlns="http://www.w3.org/1999/xhtml" style="border: none;outline: none;font-size: inherit;line-height: 1em;padding:0;margin:0;"></p><p xmlns="http://www.w3.org/1999/xhtml" style="border: none;outline: none;font-size: inherit;line-height: 1em;padding:0;margin:0;"></p><p xmlns="http://www.w3.org/1999/xhtml" style="border: none;outline: none;font-size: inherit;line-height: 1em;padding:0;margin:0;">SAMP</p><p style="border: none;outline: none;font-size: inherit;line-height: 1em;padding:0;margin:0;"></p><p style="border: none;outline: none;font-size: inherit;line-height: 1em;padding:0;margin:0;"></p></p></foreignObject></g></svg>